{"config":{
"devEnv":"STAGE",
    "mssqlconnection":"mssql://stella_user:heartbeat@192.168.130.109/SW_Reporting",
    "DEBUG":true,    
     "mysqlconfig":{
     "host":"192.168.160.151",
     "user":"root",
     "password":"",
     "port":"3306",
     "typeCast":true,
     "database":"dict"
     }
}
 }






